<?xml version="1.0" standalone="no"?>
<!DOCTYPE svg PUBLIC "-//W3C//DTD SVG 1.1//EN" "http://www.w3.org/Graphics/SVG/1.1/DTD/svg11.dtd" >
<svg xmlns="http://www.w3.org/2000/svg">
<metadata>Generated by IcoMoon</metadata>
<defs>
<font id="icomoon" horiz-adv-x="1024">
<font-face units-per-em="1024" ascent="960" descent="-64" />
<missing-glyph horiz-adv-x="1024" />
<glyph unicode="&#x20;" horiz-adv-x="512" d="" />
<glyph unicode="&#xe900;" glyph-name="facebook" horiz-adv-x="478" d="M103.822 762.311v-140.8h-103.822v-173.511h103.822v-512h211.911v512h142.222c0 0 12.8 82.489 19.911 173.511h-162.133v118.044c0 17.067 22.756 41.244 45.511 41.244h115.2v179.2h-156.444c-221.867 0-216.178-172.089-216.178-197.689v0z" />
<glyph unicode="&#xe901;" glyph-name="google" horiz-adv-x="671" d="M671.289 960h-277.333c-72.533 0-163.556-11.378-240.356-73.956-58.311-49.778-86.756-118.044-86.756-180.622 0-105.244 81.067-210.489 223.289-210.489 12.8 0 28.444 1.422 42.667 2.844-7.111-15.644-14.222-29.867-14.222-52.622 0-41.244 21.333-66.844 39.822-91.022-59.733-4.267-173.511-11.378-257.422-61.156-76.8-48.356-100.978-116.622-100.978-164.978 0-99.556 93.867-192 288.711-192 231.822 0 354.133 128 354.133 254.578 0 92.444-54.044 137.956-112.356 187.733l-48.356 36.978c-14.222 12.8-35.556 28.444-35.556 58.311s19.911 48.356 36.978 65.422c56.889 44.089 112.356 91.022 112.356 190.578 0 102.4-64 156.444-95.289 182.044h83.911l86.756 48.356zM553.244 137.956c0-83.911-68.267-145.067-197.689-145.067-143.644 0-237.511 68.267-237.511 163.556s86.756 128 115.2 137.956c56.889 18.489 129.422 21.333 140.8 21.333 12.8 0 19.911 0 31.289-1.422 103.822-72.533 147.911-108.089 147.911-176.356v0zM445.156 570.311c-21.333-21.333-58.311-36.978-91.022-36.978-115.2 0-167.822 149.333-167.822 238.933 0 35.556 7.111 71.111 29.867 99.556 21.333 27.022 59.733 44.089 93.867 44.089 110.933 0 169.244-150.756 169.244-247.467 0-24.178-2.844-66.844-34.133-98.133v0z" />
<glyph unicode="&#xe902;" glyph-name="twitter" horiz-adv-x="762" d="M634.311 192h-253.156c-35.556 0-65.422 12.8-89.6 36.978s-36.978 54.044-36.978 89.6v89.6h359.822c32.711 0 59.733 11.378 83.911 34.133 22.756 22.756 35.556 51.2 35.556 83.911s-11.378 61.156-35.556 83.911c-22.756 22.756-51.2 35.556-83.911 35.556h-358.4v186.311c0 35.556-12.8 65.422-36.978 91.022-25.6 24.178-55.467 36.978-91.022 36.978s-65.422-12.8-91.022-36.978c-24.178-24.178-36.978-55.467-36.978-91.022v-513.422c0-105.244 36.978-196.267 112.356-270.222 73.956-75.378 164.978-112.356 270.222-112.356h253.156c35.556 0 65.422 12.8 89.6 38.4 25.6 25.6 36.978 55.467 36.978 89.6s-12.8 65.422-36.978 91.022c-25.6 24.178-55.467 36.978-91.022 36.978v0z" />
</font></defs></svg>