<?xml version="1.0" standalone="no"?>
<!DOCTYPE svg PUBLIC "-//W3C//DTD SVG 1.1//EN" "http://www.w3.org/Graphics/SVG/1.1/DTD/svg11.dtd" >
<svg xmlns="http://www.w3.org/2000/svg">
<metadata>Generated by IcoMoon</metadata>
<defs>
<font id="icomoon" horiz-adv-x="1024">
<font-face units-per-em="1024" ascent="960" descent="-64" />
<missing-glyph horiz-adv-x="1024" />
<glyph unicode="&#x20;" horiz-adv-x="512" d="" />
<glyph unicode="&#xe900;" glyph-name="facebook" horiz-adv-x="478" d="M103.253 761.6v-140.942h-103.253v-172.658h103.253v-512h212.196v512h142.222s13.369 82.631 19.911 173.084h-161.28v118.187c4.098 22.574 22.88 39.705 45.929 41.236l115.636 0.008v179.484h-157.156c-222.72 0-217.458-172.516-217.458-198.4z" />
<glyph unicode="&#xe901;" glyph-name="google" horiz-adv-x="671" d="M671.289 960h-277.191c-72.533 0-163.982-10.667-240.64-73.813-51.657-43.614-84.673-107.903-86.182-179.939-0.004-105.074 80.778-211.314 223.285-211.314 13.511 0 28.444 1.422 42.667 2.702-8.31-15.14-13.489-33.058-14.216-52.116-0.007-41.893 21.611-67.351 40.384-91.529-60.444-4.124-173.511-10.667-256.996-61.724-78.080-47.218-102.4-115.627-102.4-163.982 0-99.556 94.151-192.284 289.28-192.284 231.396 0 353.849 128 353.849 254.009 0 92.729-53.76 138.382-113.067 188.16l-48.498 37.547c-14.222 12.089-34.844 28.444-34.844 57.884s20.196 48.356 37.547 65.849c56.178 44.373 113.067 91.307 113.067 190.862 0 101.689-64.569 155.876-95.431 181.333h83.484zM552.96 137.671c0-83.342-68.693-144.782-197.404-144.782-144.213 0-237.084 68.124-237.084 163.556s86.044 128 115.627 138.382c42.093 12.771 90.571 20.554 140.727 21.468 2.412 0.067 4.662 0.101 6.919 0.101 8.662 0 17.207-0.499 25.609-1.47 101.234-72.437 145.607-108.704 145.607-177.255zM445.298 570.311c-23.959-22.343-56.012-36.282-91.311-36.976-115.765-0.002-168.245 149.189-168.245 239.216-0.137 2.441-0.216 5.298-0.216 8.173 0 34.361 11.179 66.11 30.099 91.81 22.554 26.36 56.159 43.394 93.756 43.944 111.739 0.001 169.623-150.47 169.623-247.181 0-24.32-2.844-67.271-33.707-98.133z" />
<glyph unicode="&#xe902;" glyph-name="twitter" horiz-adv-x="762" d="M634.453 192h-252.729c-69.472 0.16-125.727 56.515-125.727 126.009 0 0.3 0.001 0.6 0.003 0.9v89.981h359.396c65.411 0.242 118.372 53.202 118.613 118.59-0.322 65.501-53.397 118.476-118.882 118.636h-359.127v185.884c0.007 0.493 0.011 1.076 0.011 1.659 0 34.748-14.324 66.151-37.389 88.626-22.217 23.282-53.45 37.742-88.061 37.742-0.901 0-1.799-0.010-2.695-0.029-0.485 0.013-1.215 0.020-1.947 0.020-34.672 0-66.041-14.147-88.647-36.985-23.025-22.434-37.302-53.73-37.302-88.361 0-0.939 0.011-1.876 0.031-2.811l-0.002-512.999c-0.026-1.635-0.041-3.564-0.041-5.497 0-103.808 42.874-197.602 111.881-264.64 67.004-69.427 160.757-112.486 264.567-112.486 2.019 0 4.035 0.016 6.047 0.049l251.999-0.004c70.645 0.063 127.89 57.346 127.89 128 0 35.107-14.133 66.912-37.021 90.038-22.47 23.252-53.95 37.695-88.803 37.695-0.727 0-1.452-0.006-2.175-0.019z" />
</font></defs></svg>