<?xml version="1.0" standalone="no"?>
<!DOCTYPE svg PUBLIC "-//W3C//DTD SVG 1.1//EN" "http://www.w3.org/Graphics/SVG/1.1/DTD/svg11.dtd" >
<svg xmlns="http://www.w3.org/2000/svg">
<metadata>Generated by IcoMoon</metadata>
<defs>
<font id="ligiconfont" horiz-adv-x="1024">
<font-face units-per-em="1024" ascent="960" descent="-64" />
<missing-glyph horiz-adv-x="1024" />
<glyph unicode="&#x20;" horiz-adv-x="512" d="" />
<glyph unicode="&#xe900;" glyph-name="twitter" d="M739.963 217.641h-227.41c-31.611 0-58.491 11.059-80.579 33.28-22.19 22.241-33.157 49.121-33.157 80.886v80.927h324.035c29.225 0 54.395 10.506 75.305 31.365 20.91 21.033 31.396 46.172 31.396 75.428 0 29.358-10.496 54.467-31.457 75.428-20.982 20.91-46.223 31.396-75.571 31.396h-323.707v167.209c0 31.642-11.284 58.726-33.69 81.295-22.313 22.61-49.295 33.946-80.64 33.946-32.215 0-59.648-11.172-81.961-33.28-22.385-22.18-33.567-49.5-33.567-82.063v-461.722c0-94.966 33.567-176.097 100.731-243.436 67.226-67.461 148.255-101.1 242.995-101.1h227.348c31.57 0 58.665 11.336 81.203 33.946 22.559 22.497 33.812 49.644 33.812 81.254 0 31.621-11.254 58.716-33.812 81.316-22.548 22.548-49.684 33.925-81.275 33.925z" />
<glyph unicode="&#xe901;" glyph-name="facebook" d="M389.919 730.307c0-23.224 0-126.884 0-126.884h-92.959v-155.156h92.959v-461.066h190.966v461.056h128.133c0 0 12.001 74.394 17.818 155.74-16.681 0-145.234 0-145.234 0s0 90.266 0 106.086c0 15.852 20.818 37.181 41.4 37.181 20.541 0 63.887 0 104.038 0 0 21.125 0 94.116 0 161.526-53.606 0-114.575 0-141.455 0-200.387 0.010-195.666-155.3-195.666-178.483z" />
<glyph unicode="&#xe902;" glyph-name="google" d="M814.080 908.8h-249.395c-65.362 0-147.681-9.646-216.658-66.458-52.122-44.79-77.476-106.414-77.476-162.079 0-94.321 72.643-189.911 200.96-189.911 12.104 0 25.364 1.229 38.779 2.406-6.062-14.469-12.175-26.563-12.175-47.155 0-37.509 19.384-60.447 36.321-82.227-54.415-3.604-156.14-9.646-231.24-55.583-71.424-42.414-93.256-104.038-93.256-147.599-0.020-89.498 84.756-172.995 260.321-172.995 208.241 0 318.444 114.893 318.444 228.659 0 83.374-48.435 124.559-101.704 169.308l-43.602 33.843c-13.261 10.906-31.416 25.385-31.416 52.019 0 26.593 18.156 43.561 33.864 59.279 50.821 39.895 101.704 82.227 101.704 171.725 0 91.945-58.163 140.329-85.975 163.297h75.1l77.404 43.469zM707.625 168.663c0-74.988-61.778-130.591-178.022-130.591-129.516 0-213.084 61.686-213.084 147.507 0 85.934 77.496 114.872 104.1 124.559 50.883 16.957 116.244 19.364 127.119 19.364 12.124 0 18.176 0 27.904-1.188 92.037-65.3 131.983-97.987 131.983-159.652zM610.744 558.090c-19.384-19.313-52.101-33.843-82.381-33.843-104.079 0-151.276 134.277-151.276 215.276 0 31.457 6.062 64.082 26.604 89.498 19.384 24.187 53.258 39.926 84.756 39.926 100.465 0 152.576-135.465 152.576-222.515 0-21.811-2.468-60.477-30.28-88.34z" />
</font></defs></svg>